{
  "type": "service_account",
  "project_id": "ace-mltb",
  "private_key_id": "1648b83c7d26b5b9882a06ae30048c2cd5d981f3",
  "private_key": "-----BEGIN PRIVATE KEY-----\nMIIEvAIBADANBgkqhkiG9w0BAQEFAASCBKYwggSiAgEAAoIBAQC7EzxZQEoP5JRl\ngGc064JkSBBJ7IqNUHD8y/Eigel1uSOKLO8MmQlgdQ5+iyxSmWy+tz8DEo/eI6OA\nkAS2y9j3NwnTPnYJVtGNElYMWpeb++vnYX6UjwqRj+nAikH3ELQiIOKXGyVCDoKZ\nlxxqJ4TIBUIFHyb0LPJqIR3LdLILTnexmD/de5zlCSq3nVZCy1PulRIiGUVJAwBH\ndNxrifvBpN938baQX/rmI9v9Sasp8V7EXuFXTT1jXsQxMqx2xV09veRX3X+8aEbz\nD42W7/H5vevnjbOkEcxuSblq4ikcXwktK/Zz7mWygdLErX+pYFuL7POUuVKxd9KF\neS3M6rQrAgMBAAECggEAFHd8SL9x2t9FJP2xTObfMx13Or84QVGlquKdFQtlgU2q\nB7n2xUgQ8I6d8VZEmRzT+uGNcUacms8HWk9nVKBksldBKe1ReKAY+PgileNrZtNe\n8ceG07X6kAZQqpH1uZQIQRub7rA3mUyBGVCg+TQtoLyChpDr8Bbixp2s5s9zkyzo\npPPatFXVWZ7NhLI/oawHI37vFtRewMwdg2bYAjsmLfGZNU9S1DU8q7BfgGGGmyAn\nt+tmKNuWSl+5WLvP4YDkR6d0Ha0HFXoJuP1QHfPYpW5/gmfqY/GWKR0GEAr0wbP/\nWVgq0qHIFG97SrGxvX0/bI0SeIkeKkbH/boNAm+hAQKBgQDa9LhsxZid3FzewHh0\nsqv/mGIP3ig8bRj0yqcTlTYftAi9nbGBaXIMJJgrYgjKHVIVAQgV3BIMOjAagPxd\nljfvgpuJmQEWk5ZH9T/a8JkW7i1s2yGf9N3daGSACnQDEh30H71yxM7EwKrl0Z1P\nifAzz0c7vwP5rPHITKw3IDEPQQKBgQDaubbrb9fL2ndXn3ZrBweqC0n7RppcAiiE\nL3SdvUsPyRDF2IScthn13SS/XHLUdUe2BBEY4RGpoO8efxzvpHhe7g7ePW18a/nM\nnJZRNAPtx690O8lhKvRymqsyxN2pDSex0WTwjcEO6AA1ox8rFPon0MRQ4KYKj6pO\nU9zuzWhUawKBgEC5aK8WtiesFXPvd2wfyQJUXGCOblx2b5MlOMBsMkSq5o6OyAMW\nVZVLWAQzBaAhjLsSw/4aQOeGZ+PdzzwnBL/zXuEM7qpq1FjPIaIpz0dc/uaX3Fe5\nfcBOdK746BRkTaB1pX4AuZKl1Z78GMGDaBMYqdj6fUVYH1zzdVESXg5BAoGADs/A\nuVTLkjxrFH3x8PF67WLyUZfIYC6tO7ZS+VOWP61n+13cLRiPzXx6PpMuG4ENqB/C\nYKLtJUWGq9QDy56hoBwS2a3jOie9tMNt0nXpRjLdiMt7qZ7VCuW6bieysv33EC2T\n3k5bIn1Hdlpjg/FZt1SF1sw/sjtkVwWK0okKZZ0CgYBSm1TqHBKRLSloAOQcD3o0\nJoaiNpnfZx9Vfm3qNUe/opx7Y++dRgJpjXR5LanKpMfU823l7+9U0kN3s2mcR1l9\nTd5f2pLOMc+jsRFB2I3nahEf5PcWSgvx7RbDO1o16PwcrF86ngvM/KgTwGHR3JjH\nL8jfNw3KrsIXZU3MZIgXKA==\n-----END PRIVATE KEY-----\n",
  "client_email": "mfc-ebeegmbtfvrlrm7e2erd6dc2vf@ace-mltb.iam.gserviceaccount.com",
  "client_id": "111649854661403389733",
  "auth_uri": "https://accounts.google.com/o/oauth2/auth",
  "token_uri": "https://oauth2.googleapis.com/token",
  "auth_provider_x509_cert_url": "https://www.googleapis.com/oauth2/v1/certs",
  "client_x509_cert_url": "https://www.googleapis.com/robot/v1/metadata/x509/mfc-ebeegmbtfvrlrm7e2erd6dc2vf%40ace-mltb.iam.gserviceaccount.com"
}
