{
  "type": "service_account",
  "project_id": "ace-mltb",
  "private_key_id": "49462bd4cf3ecb943e5ded84b37789b4f80f3f37",
  "private_key": "-----BEGIN PRIVATE KEY-----\nMIIEvAIBADANBgkqhkiG9w0BAQEFAASCBKYwggSiAgEAAoIBAQDkXsbloeXBg7N8\n0d5w6Kw0GL/o5Q9INj7+HWM2X8dcQ9pKsP1SlmrHCroiTnSXhoCqdb44EV78iCRE\n713gvZqLzhQBfINwLxzPP8pVyIL5K5aXR6tVtOwZjrJQJckE6DWN5M76XxYuRx92\nkbX9FuV3XqJEx1GYTknSGGsyy7tVaiiDaY+WU4Wv4qsHVRxEm06V4p3agnjs41et\n+ByU0Nk45iFqI8w9MvwZDyh9zKRavlDSUDS7L06VxdR/RKr54E+tvxvM5dr+ER1a\ngJn4GAZiyiptNV0bNBZtI7C7aRIb0kzoJvKJAaHy05DZBXI9ikkLHZ6Ypso2vm5N\nVNJZLU3JAgMBAAECggEAB5c8ZHvdBZGFfOnDa2yac7laYKkDeOafsaXjqzYkC+Wv\n+vFW3EDGcBMD1JnXv4Ufn/rdraKrLfju/rEXpV2cBlddXB7Jxif0vNFNngwWCWb4\n4JKn5+eFfQR8mhQlckGvLQYc2J7iP3vK+I+XlV/mVPFK8r8Oz+GTS9XWs1epBInc\nl0mja9Qes5q1F2PdYeicIf16cZ2hxDw0zousiHnl+28Nxyzw/sfCp+54qJL5c/L8\nKnufHc47B49/X4xtPDSpgWxSTFXJLW3R1y1bYPpkd1VYGVJVSNNUqxxNMpEmhseO\nGjD0FMW8dz+iDoWOTRgkRIu3hxlBcA4KCkzeuwiTMQKBgQD1Os5/ZiKqRw9+MURM\ngQZehm7HXl3N/QpkswfHzExoTmNlejGwxUMpk8vIzOVYDTDOu3A2DQbknw1ZwG1c\nFeWEGiSIb4AY6w1nMZSxzPEorIAC+6teLqLz8gTj9LBct6rsrcrj/28f+MPwyMBT\nl+YFgfjf+3MK56yGp+55w9RlsQKBgQDuZmnx+aC/AJivwV9xlamHLYJygmvtZQvY\nM05WQ5UPaO1jDSrdDf4yTiHEfMhyOfa7kxLAVJjekSMbLr4RKbWy33fDmkMpevIN\nVGygojmpMt4ALDnDFqAH6fVw76LLhbmoF1UbGZzwW62bqvSgHtMvSSgGxxB1QA9D\no1qPpvu3mQKBgHuwzbc0rQd2EDp2Xxy3d57176pfzrC3kSZ5ptMAGQoDf98PY0Dm\nPpoaEg+WSZfAD342zMJ2j6OBFhrPFFn+MWYQSZ0HoHTxGjGSsI198aWyXF8k0asP\nmuGwkQbpxIr/mRcIEe4uSL63mx04JMoFM+BTTlSrX7uAX2UMDx0byWYBAoGAWkDl\nfRk/VPA53df8dTjuvGFrUES17WLi0A/kaV4ekX3s2SIEBzoj8RGJUSTYkf4Fvc+Z\nOr0MPr59pu3UQRUkV7qoUaIWKR8FgixjD5E6+SZry27y0zu+jCBzrjTa0egneE6V\nBrR0qL5chGF9SR1CYFV21NIKFgmRfc7bGyVhiIkCgYB5dfQA/+1EckSkjEux4ntM\nh9MKRs9u9leNwmJpOttSBECLZUQskYt2A8ZzOrnZIe6hHc049PEZeqlP/4LpimTP\nGzmPGAurqMwgkZNx/tUHZqcONkb9hOJkgcbCLrowxkZxTkcnQ5akFMBdw0ttUf5y\nHs/khvqZ28WyWh8d0Xxa8w==\n-----END PRIVATE KEY-----\n",
  "client_email": "mfc-yvh2x9vqwlku5ipof86y0m9f6y@ace-mltb.iam.gserviceaccount.com",
  "client_id": "101988449871975493335",
  "auth_uri": "https://accounts.google.com/o/oauth2/auth",
  "token_uri": "https://oauth2.googleapis.com/token",
  "auth_provider_x509_cert_url": "https://www.googleapis.com/oauth2/v1/certs",
  "client_x509_cert_url": "https://www.googleapis.com/robot/v1/metadata/x509/mfc-yvh2x9vqwlku5ipof86y0m9f6y%40ace-mltb.iam.gserviceaccount.com"
}
