{
  "type": "service_account",
  "project_id": "ace-mltb",
  "private_key_id": "831537dc14d4e0828b054b40f8aa187448bba729",
  "private_key": "-----BEGIN PRIVATE KEY-----\nMIIEvAIBADANBgkqhkiG9w0BAQEFAASCBKYwggSiAgEAAoIBAQDMo18gL3B1Fjbr\nHKVVEmiyblUyySGWUlAvqy2nrlQEThIXquns+GqSoQnGgKwkizoNUGVyE3LyfXCu\n+Yc/CZXZO8O42+kucI3kb9nSJ64teh2bkGBu8EJMwi5n5C2kVbrLJTIPqFCXwU98\njfz7yU9wdaagOgZYynqRYIsRqSFSPcgim7iWOQurY7BFlZ1gwHiZ2dMpqSx0m8T0\ndqzIFj1snQqPv0DANqjs8Jle7yofBuZJfQ8t70elbXFZ/EDVmmEsODtK92n88Xox\nKDzOavwr9KNiGuc42b/KxhHWF2Lb6T2PHH03azNe3kOm3+7newFYdy/U8KcSPDJi\nL/HjiAehAgMBAAECgf99VzOqCw8z0uogZ+inNXdbPaksSiArFTp4Ir5RY72iRWS0\n38LC8AVBenxPpqXJsbKvpPv95gZp8IYB0Q9of6krktJMJVEAriq62KeaHnkuRwsL\ngGBl6FMzoLG71fmpcQ57OcpykgLgcKRhrguzokI9/PyU90rGkn6FvOnGuh6RYp28\nJZnNiwP28RLtcbk7k9YOCXVR3fFRxUhY0YD/RiIaB/SCJIJVH2N7SUsIKBDamAzD\nvMXCIzZU3AzRt2mrKdPh/zlZXzHJE3nKEWiJGopQh/rdHSt7bqSnC8d2R1m+TSzR\nalHX5OXQAeSD1j+KkOLOkv/Sjnnb/hZyaCRxGcECgYEA5mWyc5qKjhwz7KlCPnWR\nkMkHrYS+aqV3o+aptl5QzTnCLbgjedrCyi81AnmuZQ6zMQoBIykXaZ/FJldMItx1\nP42WmsFExT+75m3P5/tj04NCVvYZLAixl3I4Uhw5+bKGamhiNPOJm8UMrflFn7PX\nkcfVsk4eeHVBZ7Y74MMBocECgYEA42DiZRaoRgDcRFNsPioKjVQqcNfUtpYtkj6q\nbXij+kHKZIHfMkynkPP4Zg916KzzqLCi0s4cIPFJC6QnyawVPHuPnOCu2RENWvoN\nQ8SJJv1f5aK71JM5P6jfffcqBnhwgyCYAqBJNfxfqazjTAzgsXgJSqzxkKhKE+p2\nKFVGHeECgYEAs1zAjBbnfrKeCcPK+mz0oc6e14rb4pJmjYZo4LyUEvDAJm+PzrFr\nq5MMpZytE6daAPdU41Z+D5B+HtcfQpR2Ar/rWxbSvuxbD4y1qlee427wGlsERa+O\n8ePNzL6Es8szsWsJ6Uce/dFtiZLhjO6pB6iWyHTga8582IyaGOQ3RQECgYEApNWZ\nihsQxh7dj5LCh5ZGrAn18nQkunDIfJp9RnsMtOF47b/QpFA5sbWLv8E5gwHOad4T\nS6srbR4+C/hm96aOhpg0lk+zsZzRB8D6WMRjgSZxnLGKZSKNf/7WdiT2DFbHiefZ\nCx5TtJVObFzvMjSrtzwD0GTrgijd+u4f1kFrYUECgYBnSIpDA5dqOq9qhbKUZN5F\nd9oPvaJoglGSq240y6umC2m/R+WIJCaaWEs287WzW/wrjxRlOrCZgQUi5JXyhaUI\n59kKT0Xups4FI6sT21FOA5o8UXBOrge29ZhaEkQAQniCyyQQSITgX+bNPeNey5ST\nCc6KL9u1NPfNX7DChQ4Wuw==\n-----END PRIVATE KEY-----\n",
  "client_email": "mfc-p4c0wa9-y1anj6gornto7ji1t3@ace-mltb.iam.gserviceaccount.com",
  "client_id": "107963095586852142180",
  "auth_uri": "https://accounts.google.com/o/oauth2/auth",
  "token_uri": "https://oauth2.googleapis.com/token",
  "auth_provider_x509_cert_url": "https://www.googleapis.com/oauth2/v1/certs",
  "client_x509_cert_url": "https://www.googleapis.com/robot/v1/metadata/x509/mfc-p4c0wa9-y1anj6gornto7ji1t3%40ace-mltb.iam.gserviceaccount.com"
}
