{
  "type": "service_account",
  "project_id": "ace-mltb",
  "private_key_id": "e1a174b326d5ad7355a97230f34dcfdb9b84bc41",
  "private_key": "-----BEGIN PRIVATE KEY-----\nMIIEvAIBADANBgkqhkiG9w0BAQEFAASCBKYwggSiAgEAAoIBAQCOFlOezBfHrDQ5\nGVHMv0iReDyEsrvK4Ddg7M7q3gG7NJ3DjOuZom3sklCmjDb6SVPOPaJW6R5AOq2V\npZqaprp6PkTeTYocv39MEhJ1MZQkmyWnzZiZKnoK9Y2AzTYSHl+WWBgLpD8fBvCA\npWry6tN4YmATwEofTDaKtv4NmyDVVXc4t9rqmZi6ZInfk0/XIDElX/+JluCpm3WY\n0/dunNCd7PPomtZ3P8PexuWlbSgHpax43V6R2kCmWdDGeVZSD5V2SJ/jCht1nqix\nopeTP3BLzu4i4NNB0IsqcUV16NXZ762hds+vyntxHfjXN52xph4TTVJoOvuJjE36\nzFN7Ah/bAgMBAAECggEABOT0/W/XU9v1MpBSNoTSSZyELSgA+wSNM8wEdqeuFJZD\n5vQIO5MSSUdi+tGypR14gw6xdF/0WE8NIq4BLNmYa9SQR74RB1t7VZH7y8io6zfi\n7KxS2NfTO2Ro+upWtfoQ3dtr/J6sQ/PXvf60t+hp32g4GgYSJ5DXAiE6kBprX53U\naFneAk35xv7b4WZljl5TTaDMAsrgpZBRkNdrU7E4deOgD1ukiZgTtViLqN+eewt3\nRjYltuaVRcbtxZUDrP6Vs+45XZtZPGOaW06SCtoPghNe9pbjqqC4y/R7vLkh78k+\nNJbwNDbCmDuglhxFgqjbWOz2vgrc1MpfeyXFPnTycQKBgQDDXRvmodCkXuoyCEJi\nCftDEITLJEnk1kJHQEtmwrq1bEOqfa2OhGRFn+inGprspUet72E0Nv9tW/bsJ0G1\nJ9A3h8nIFFEDTLT8BlbmSiNjpofi0IanwbKy54BEA72b/sO6DVjvbNcJFwRHD095\nDdSxHQe3vorjE02NmBqNXN6fkQKBgQC6MA+UyD+BM//UJ5JdlV1wuSlDwFESrqre\n8qU8dZ21dkIny+ra1MshGK4phArVwmw/GR1fIxXGCeVMGRbw8NZzIrlv5VJtv+xB\nO6lvPTDfx9JLdCl+DbV4BY91xU4/l5CmxOtENMeyMmKhiaqcK8ypfEZvg3XSiJe9\nUkeWWcPqqwKBgGpHy/bzDvNs41Fmpt54+aUpZmSxEDYazaG/e4Wi6DnsdP9aMcH3\niilKbiICWkflPpKESMhEJz8SKcmdLaTkzOR4zbA4RT5bS5ZTyJCtwoTiwsgEk0zO\nFm43fNMDifJEbaxYuIpAFtfOGrihvqVnfc8AsQMn+JzCEo22MrO20zHRAoGANv4N\nDBfdUe8m5+XMQGHmmG3IN1+tUoROqc0nauUecMN+JL0BICNr39mnT1HV1W84g6aK\nW1hEjRrNJB3g/cdUv+sItHkaUJo4UMgrclSzg9VEUs77lmS8LbgOuG1PgE7nBary\nBlJEjWh+Y1IDF1+EcqbnMva0LTv0/ZE43bqjuEMCgYAuwLVyOmaXo3EPzjS12iMk\nlQ8kwv4FhlobN+tkkbgC5DPygjTYRkVUVUX+Tgo9smZqEbfW+kE40T2SHEJrf3zp\noyqkqvdgXdeIbNbG9UrW6NypwbqlgMd0FjtYJxVaTnHNrq78x2OLkRVHVJOaG5dU\nIgSMYUc8G7PtTduR0tu/bQ==\n-----END PRIVATE KEY-----\n",
  "client_email": "mfc-ehv-y5k9tf40f4izz7i-qf25iq@ace-mltb.iam.gserviceaccount.com",
  "client_id": "109623718682004962371",
  "auth_uri": "https://accounts.google.com/o/oauth2/auth",
  "token_uri": "https://oauth2.googleapis.com/token",
  "auth_provider_x509_cert_url": "https://www.googleapis.com/oauth2/v1/certs",
  "client_x509_cert_url": "https://www.googleapis.com/robot/v1/metadata/x509/mfc-ehv-y5k9tf40f4izz7i-qf25iq%40ace-mltb.iam.gserviceaccount.com"
}
